<svg width="9" height="15" viewBox="0 0 9 15" fill="none" xmlns="http://www.w3.org/2000/svg">
<path d="M2 1.83203L7 7.42609L2 13.0201" stroke="#0070C2" stroke-width="3" stroke-linejoin="round"/>
</svg>
