<svg width="32" height="31" viewBox="0 0 32 31" fill="none" xmlns="http://www.w3.org/2000/svg">
<path d="M31.5 15.307C31.5 7.36472 24.5208 0.995117 16 0.995117C7.47923 0.995117 0.5 7.36472 0.5 15.307C0.5 23.2493 7.47923 29.6189 16 29.6189C24.5208 29.6189 31.5 23.2493 31.5 15.307ZM2.53448 15.307C2.53448 8.51917 8.52355 2.94766 16 2.94766C23.4764 2.94766 29.4655 8.51917 29.4655 15.307C29.4655 22.0948 23.4764 27.6663 16 27.6663C8.52355 27.6663 2.53448 22.0948 2.53448 15.307Z" fill="#0070C2" stroke="#0070C2"/>
<path d="M17.542 13.2338L17.9014 13.5411L18.2282 13.1994L19.1511 12.2344L19.4971 11.8726L19.1348 11.527C18.8129 11.2201 18.4546 10.9537 18.061 10.7278C17.749 10.5488 17.4009 10.4214 17.0217 10.3406V9.3252V8.8252H16.5217H15.2704H14.7704V9.3252V10.3901C14.155 10.5545 13.6299 10.8521 13.2158 11.2955C12.7032 11.8441 12.4555 12.5296 12.4555 13.3147C12.4555 13.8439 12.5786 14.3258 12.8567 14.7291C13.102 15.0849 13.4104 15.3874 13.7773 15.6366C14.122 15.8708 14.491 16.0729 14.8836 16.2433C15.2364 16.3965 15.5646 16.5557 15.8685 16.7209C16.1525 16.8752 16.3738 17.0393 16.5413 17.209C16.6508 17.3199 16.7099 17.4547 16.7099 17.6498C16.7099 17.9286 16.6269 18.0831 16.5078 18.1859C16.3866 18.2906 16.1463 18.3884 15.6927 18.3884C15.3307 18.3884 14.9974 18.3197 14.6877 18.1851C14.3502 18.0383 14.0123 17.8419 13.6744 17.5929L13.2685 17.2939L12.9728 17.7023L12.1595 18.8256L11.8908 19.1967L12.237 19.4967C12.6396 19.8456 13.1105 20.1212 13.6435 20.327C14.0179 20.4716 14.3937 20.5788 14.7704 20.6474V21.6537V22.1537H15.2704H16.5217H17.0217V21.6537V20.5735C17.6994 20.3958 18.2667 20.0795 18.6929 19.6037C19.2011 19.0363 19.4461 18.335 19.4461 17.5346C19.4461 16.9823 19.3257 16.4809 19.0528 16.06C18.8086 15.6832 18.4995 15.3651 18.1286 15.1076C17.7828 14.8674 17.4123 14.6619 17.018 14.4907C16.6601 14.3354 16.3267 14.1806 16.0173 14.0265L15.7944 14.4741L16.0173 14.0265C15.7293 13.8831 15.5061 13.7339 15.3385 13.5835L15.0045 13.9556L15.3385 13.5835C15.2389 13.4941 15.1917 13.3932 15.1917 13.2427C15.1917 12.9837 15.2686 12.8543 15.3686 12.7722C15.4904 12.6723 15.6972 12.5905 16.0525 12.5905C16.3714 12.5905 16.6174 12.6456 16.8066 12.736C17.0292 12.8424 17.2744 13.0051 17.542 13.2338Z" fill="#0070C2" stroke="#0070C2"/>
</svg>
