<svg width="20" height="13" viewBox="0 0 20 13" fill="none" xmlns="http://www.w3.org/2000/svg">
<path d="M18.1573 7.58861H0.758663C0.354043 7.58861 0 7.23457 0 6.82995C0 6.42533 0.354043 6.07129 0.758663 6.07129H18.1573C18.562 6.07129 18.916 6.42533 18.916 6.82995C18.916 7.23457 18.6125 7.58861 18.1573 7.58861Z" fill="#0070C2"/>
<path d="M13.5545 13C13.3521 13 13.1498 12.8988 12.9981 12.7471C12.6946 12.4436 12.6946 11.9884 12.9981 11.685L18.0559 6.77896L12.9981 1.26601C12.6946 0.962547 12.7452 0.456771 13.0487 0.203883C13.3521 -0.0995818 13.8579 -0.0490043 14.1108 0.254461L19.6743 6.32377C19.9272 6.62723 19.9272 7.08243 19.6238 7.38589L14.1108 12.7977C13.9591 12.9494 13.7568 13 13.5545 13Z" fill="#0070C2"/>
</svg>
