<svg width="22" height="21" viewBox="0 0 22 21" fill="none" xmlns="http://www.w3.org/2000/svg">
<path d="M6.04215 11.2266L6.04642 11.2125C6.0601 11.1671 6.07832 11.1233 6.10081 11.0814C6.10761 11.0672 6.1153 11.0534 6.12385 11.0402C6.15501 10.9878 6.1934 10.9399 6.23789 10.8977M6.04215 11.2266L6.30675 10.9702M6.04215 11.2266V11.2414V11.2414V11.2414V11.2414V11.2414V11.2414V11.2414V11.2414V11.2414V11.2415V11.2415V11.2415V11.2415V11.2415V11.2415V11.2415V11.2415V11.2415V11.2415V11.2415V11.2416V11.2416V11.2416V11.2416V11.2416V11.2416V11.2416V11.2416V11.2416V11.2416V11.2417V11.2417V11.2417V11.2417V11.2417V11.2417V11.2417V11.2418V11.2418V11.2418V11.2418V11.2418V11.2418V11.2418V11.2419V11.2419V11.2419V11.2419V11.2419V11.2419V11.242V11.242V11.242V11.242V11.242V11.242V11.2421V11.2421V11.2421V11.2421V11.2421V11.2422V11.2422V11.2422V11.2422V11.2422V11.2423V11.2423V11.2423V11.2423V11.2423V11.2424V11.2424V11.2424V11.2424V11.2424V11.2425V11.2425V11.2425V11.2425V11.2426V11.2426V11.2426V11.2426V11.2427V11.2427V11.2427V11.2427V11.2427V11.2428V11.2428V11.2428V11.2428V11.2429V11.2429V11.2429V11.243V11.243V11.243V11.243V11.2431V11.2431V11.2431V11.2431V11.2432V11.2432V11.2432V11.2433V11.2433V11.2433V11.2433V11.2434V11.2434V11.2434V11.2435V11.2435V11.2435V11.2435V11.2436V11.2436V11.2436V11.2437V11.2437V11.2437V11.2438V11.2438V11.2438V11.2439V11.2439V11.2439V11.244V11.244V11.244V11.2441V11.2441V11.2441V11.2442V11.2442V11.2442V11.2443V11.2443V11.2443V11.2444V11.2444V11.2444V11.2445V11.2445V11.2445V11.2446V11.2446V11.2446V11.2447V11.2447V11.2447V11.2448V11.2448V11.2449V11.2449V11.2449V11.245V11.245V11.245V11.2451V11.2451V11.2452V11.2452V11.2452V11.2453V11.2453V11.2453V11.2454V11.2454V11.2455V11.2455V11.2455V11.2456V11.2456V11.2457V11.2457V11.2457V11.2458V11.2458V11.2459V11.2459V11.2459V11.246V11.246V11.2461V11.2461V11.2461V11.2462V11.2462V11.2463V11.2463V11.2463V11.2464V11.2464V11.2465V11.2465V11.2466V11.2466V11.2466V11.2467V11.2467V11.2468V11.2468V11.2469V11.2469V11.2469V11.247V11.247V11.2471V11.2471V11.2472V11.2472V11.2472V11.2473V11.2473V11.2474V11.2474V11.2475V11.2475V11.2476V11.2476V11.2476V11.2477V11.2477V11.2478V11.2478V11.2479V11.2479V11.248V11.248V11.2481V11.2481V11.2482V11.2482V11.2482V11.2483V11.2483V11.2484V11.2484V11.2485V11.2485V11.2486V11.2486V11.2487V11.2487V11.2488V11.2488V11.2489V11.2489V11.2489V11.249V11.249V11.2491V11.2491V11.2492L5.04699 15.3268L5.04693 15.3271C5.02221 15.4295 5.02216 15.536 5.04677 15.6385C5.07137 15.741 5.11991 15.8365 5.18838 15.9179C5.25683 15.9994 5.34341 16.0647 5.44141 16.1094C5.53928 16.1541 5.64624 16.1771 5.7544 16.1769M6.04215 11.2266L16.839 9.07928M6.23789 10.8977L6.30675 10.9702M6.23789 10.8977L6.23787 10.8977L6.30675 10.9702M6.23789 10.8977L12.4902 4.95795M6.30675 10.9702L12.6354 4.95795H12.4902M12.4902 4.95795H3.70859C3.34669 4.95795 3.00058 5.09457 2.74617 5.33626C2.49193 5.57779 2.35012 5.90425 2.35012 6.24349V17.4268C2.35012 17.7661 2.49193 18.0925 2.74617 18.3341C3.00058 18.5758 3.34669 18.7124 3.70859 18.7124H15.4805C15.8424 18.7124 16.1885 18.5758 16.443 18.3341C16.6972 18.0925 16.839 17.7661 16.839 17.4268V9.07928M12.4902 4.95795L16.839 9.07928M16.839 9.07928L10.5698 15.035L10.5691 15.0357C10.5262 15.0756 10.4782 15.11 10.4264 15.138L10.3981 15.1559L10.3889 15.1618L10.3886 15.1612C10.3443 15.1829 10.2979 15.2004 10.2501 15.2134L10.2372 15.2169H10.2238H10.2237H10.2237H10.2237H10.2236H10.2236H10.2236H10.2235H10.2235H10.2234H10.2234H10.2234H10.2233H10.2233H10.2233H10.2232H10.2232H10.2231H10.2231H10.2231H10.223H10.223H10.2229H10.2229H10.2229H10.2228H10.2228H10.2227H10.2227H10.2226H10.2226H10.2226H10.2225H10.2225H10.2224H10.2224H10.2224H10.2223H10.2223H10.2222H10.2222H10.2221H10.2221H10.222H10.222H10.222H10.2219H10.2219H10.2218H10.2218H10.2217H10.2217H10.2216H10.2216H10.2216H10.2215H10.2215H10.2214H10.2214H10.2213H10.2213H10.2212H10.2212H10.2211H10.2211H10.221H10.221H10.221H10.2209H10.2209H10.2208H10.2208H10.2207H10.2207H10.2206H10.2206H10.2205H10.2205H10.2204H10.2204H10.2203H10.2203H10.2202H10.2202H10.2201H10.2201H10.22H10.22H10.2199H10.2199H10.2198H10.2198H10.2197H10.2197H10.2196H10.2196H10.2195H10.2195H10.2194H10.2194H10.2193H10.2193H10.2192H10.2192H10.2191H10.2191H10.219H10.219H10.2189H10.2189H10.2188H10.2188H10.2187H10.2187H10.2186H10.2186H10.2185H10.2185H10.2184H10.2184H10.2183H10.2183H10.2182H10.2182H10.2181H10.2181H10.218H10.2179H10.2179H10.2178H10.2178H10.2177H10.2177H10.2176H10.2176H10.2175H10.2175H10.2174H10.2174H10.2173H10.2173H10.2172H10.2172H10.2171H10.217H10.217H10.2169H10.2169H10.2168H10.2168H10.2167H10.2167H10.2166H10.2166H10.2165H10.2165H10.2164H10.2163H10.2163H10.2162H10.2162H10.2161H10.2161H10.216H10.216H10.2159H10.2159H10.2158H10.2158H10.2157H10.2156H10.2156H10.2155H10.2155H10.2154H10.2154H10.2153H10.2153H10.2152H10.2152H10.2151H10.215H10.215H10.2149H10.2149H10.2148H10.2148H10.2147H10.2147H10.2146H10.2146H10.2145H10.2144H10.2144H10.2143H10.2143H10.2142H10.2142H10.2141H10.2141H10.214H10.214H10.2139H10.2138H10.2138H10.2137L5.91566 16.1607L5.9145 16.161C5.86189 16.1719 5.8082 16.1772 5.7544 16.1769M5.7544 16.1769C5.75426 16.1769 5.75413 16.1769 5.75399 16.1769L5.75461 16.0769L5.7548 16.1769C5.75466 16.1769 5.75453 16.1769 5.7544 16.1769ZM20.2021 1.75126L20.2018 1.75093C19.6247 1.20542 18.8448 0.9 18.0329 0.9C17.2209 0.9 16.441 1.20542 15.864 1.75093L15.8633 1.75153L14.8703 2.70675L14.8695 2.70756L13.9512 3.57034H3.70859C2.96531 3.57034 2.25151 3.85079 1.72445 4.3515C1.19722 4.85237 0.9 5.53282 0.9 6.24349V17.4268C0.9 18.1375 1.19722 18.818 1.72445 19.3188C2.25151 19.8195 2.96531 20.1 3.70859 20.1H15.4805C16.2238 20.1 16.9376 19.8195 17.4647 19.3188C17.9919 18.818 18.2891 18.1375 18.2891 17.4268V7.70166L19.2059 6.8307L19.206 6.83063L20.2019 5.88655L20.2021 5.88631C20.7765 5.33796 21.1 4.59471 21.1 3.81879C21.1 3.04287 20.7765 2.29962 20.2021 1.75126ZM12.5955 4.85795H12.7407H12.5955ZM19.1787 4.90025L19.1785 4.90038L18.6953 5.3612L16.4093 3.18949L16.8869 2.73745L16.887 2.73732C17.1901 2.44942 17.6022 2.28684 18.0329 2.28684C18.4635 2.28684 18.8756 2.44942 19.1787 2.73732C19.4816 3.02506 19.6507 3.41419 19.6507 3.81879C19.6507 4.22338 19.4816 4.61251 19.1787 4.90025ZM6.72307 14.5593L7.16108 12.759L8.61818 14.1432L6.72307 14.5593ZM10.0634 13.5618L7.77705 11.3898L15.3764 4.16655L17.6668 6.34244L10.0634 13.5618Z" fill="#858585" stroke="#858585" stroke-width="0.2"/>
</svg>
