<svg width="16" height="16" viewBox="0 0 16 16" fill="none" xmlns="http://www.w3.org/2000/svg">
<path d="M9.33717 6.22478V0C8.28169 0.000493199 8.64046 0.000462234 7.78098 0.000462234C6.92149 0.000462234 9.33718 3.87132e-05 6.22478 0V6.22478H0C-1.49009e-08 8.62695 0.000601956 6.92149 0.000601956 7.78098C0.000601956 8.64047 0 7.12695 0 9.33717H6.22478V15.562C9.33718 15.562 6.92149 15.562 7.78098 15.562C8.64046 15.562 7.78098 15.562 9.33717 15.562V9.33717H15.562C15.562 6.12695 15.562 8.64047 15.562 7.78098C15.562 6.92149 15.562 8.12695 15.562 6.22478H9.33717Z" fill="#0070C2"/>
</svg>
