<svg width="28" height="20" viewBox="0 0 28 20" fill="none" xmlns="http://www.w3.org/2000/svg">
<path d="M22.8182 0H4.45455C3.27364 0.0016834 2.14159 0.471541 1.30657 1.30657C0.471541 2.14159 0.0016834 3.27364 0 4.45455V15.5455C0.0016834 16.7264 0.471541 17.8584 1.30657 18.6934C2.14159 19.5285 3.27364 19.9983 4.45455 20H22.8182C23.9991 19.9983 25.1311 19.5285 25.9662 18.6934C26.8012 17.8584 27.271 16.7264 27.2727 15.5455V4.45455C27.271 3.27364 26.8012 2.14159 25.9662 1.30657C25.1311 0.471541 23.9991 0.0016834 22.8182 0ZM25.4545 15.5455C25.4545 16.2447 25.1768 16.9152 24.6824 17.4096C24.188 17.9041 23.5174 18.1818 22.8182 18.1818H4.45455C3.75534 18.1818 3.08477 17.9041 2.59035 17.4096C2.09594 16.9152 1.81818 16.2447 1.81818 15.5455V4.45455C1.81818 4.10833 1.88637 3.76551 2.01886 3.44565C2.15135 3.12579 2.34555 2.83516 2.59035 2.59036C3.08477 2.09594 3.75534 1.81818 4.45455 1.81818H22.8182C23.5174 1.81818 24.188 2.09594 24.6824 2.59036C25.1768 3.08477 25.4545 3.75534 25.4545 4.45455V15.5455Z" fill="#858585"/>
<path d="M23.3698 3.90289C23.1993 3.73246 22.9681 3.63672 22.7271 3.63672C22.486 3.63672 22.2548 3.73246 22.0844 3.90289L13.6362 12.3511L5.18799 3.90289C5.01653 3.73729 4.78689 3.64566 4.54853 3.64773C4.31017 3.6498 4.08216 3.74541 3.91361 3.91396C3.74506 4.08252 3.64945 4.31053 3.64738 4.54889C3.64531 4.78725 3.73694 5.01689 3.90253 5.18834L8.71435 10.0002L3.90253 14.812C3.81571 14.8958 3.74645 14.9962 3.69881 15.1071C3.65116 15.218 3.62608 15.3373 3.62503 15.458C3.62399 15.5787 3.64699 15.6984 3.6927 15.8101C3.73841 15.9218 3.80591 16.0233 3.89127 16.1087C3.97662 16.1941 4.07813 16.2616 4.18985 16.3073C4.30157 16.353 4.42128 16.376 4.54199 16.3749C4.6627 16.3739 4.78199 16.3488 4.8929 16.3012C5.00381 16.2535 5.10413 16.1843 5.18799 16.0974L9.99981 11.2856L12.9934 14.2793C13.1639 14.4497 13.3951 14.5454 13.6362 14.5454C13.8772 14.5454 14.1084 14.4497 14.2789 14.2793L17.2725 11.2856L22.0844 16.0974C22.2558 16.263 22.4854 16.3547 22.7238 16.3526C22.9622 16.3505 23.1902 16.2549 23.3587 16.0864C23.5273 15.9178 23.6229 15.6898 23.625 15.4514C23.627 15.2131 23.5354 14.9834 23.3698 14.812L18.558 10.0002L23.3698 5.18834C23.5402 5.01786 23.636 4.78667 23.636 4.54562C23.636 4.30456 23.5402 4.07337 23.3698 3.90289Z" fill="#858585"/>
</svg>
