<svg width="80" height="57" viewBox="0 0 80 57" fill="none" xmlns="http://www.w3.org/2000/svg">
<path d="M7.71094 25.7611C1.56223 36.3452 2.98624 45.6096 9.84841 50.6341C15.8402 55.0212 24.0618 54.6503 29.6613 49.4577C29.5626 49.2796 29.471 49.0979 29.3866 48.9126C25.6293 40.6659 32.4104 26.0447 44.6577 18.9737C53.6212 13.7986 65.0054 14.0242 78.7153 19.5296L79.8076 19.9682L79.6413 21.1335C77.5542 35.7593 72.0574 45.7311 63.094 50.9062C52.1153 57.2447 37.6347 57.1502 31.562 51.7864C24.9091 57.8409 15.1689 58.2479 8.07611 53.0546C-0.096385 47.0707 -1.76806 36.0896 5.1414 24.2127C0.0626545 20.3232 -1.55096 13.3071 1.64823 7.7659L3.09305 5.26339C3.50727 4.54595 4.42465 4.30014 5.14209 4.71435L9.53559 7.25094C9.56752 7.10063 9.62328 6.95271 9.70427 6.81243L13.2043 0.75025C13.6185 0.0328114 14.5359 -0.213001 15.2533 0.201212C15.9707 0.615426 16.2166 1.53281 15.8023 2.25025L12.3023 8.31243C12.2214 8.45271 12.1211 8.57495 12.0069 8.67776L18.1958 12.2509C18.2278 12.1006 18.2835 11.9527 18.3645 11.8124L21.8645 5.75025C22.2787 5.03281 23.1961 4.787 23.9136 5.20121C24.631 5.61543 24.8768 6.53281 24.4626 7.25025L20.9626 13.3124C20.8816 13.4527 20.7814 13.575 20.6672 13.6778L25.0607 16.2143C25.7781 16.6286 26.0239 17.5459 25.6097 18.2634L24.1649 20.7659C20.8816 26.4528 13.7182 28.5263 7.71094 25.7611ZM33.6084 49.6195C38.4773 53.9008 51.5926 54.0824 61.594 48.3081C69.4282 43.785 74.4127 35.0194 76.4951 21.8807C64.0754 17.1147 53.992 17.0487 46.1577 21.5718C35.4798 27.7367 29.4629 40.1788 31.856 47.0191C40.3966 36.605 49.154 30.1708 58.1523 27.7682C58.9527 27.5545 59.7748 28.0301 59.9885 28.8305C60.2022 29.6309 59.7266 30.453 58.9262 30.6667C50.4308 32.935 41.9998 39.2137 33.6585 49.5575C33.6418 49.5782 33.6251 49.5989 33.6084 49.6195ZM21.5668 19.2659L22.2616 18.0624L4.94113 8.06243L4.2463 9.2659C1.59837 13.8522 3.30863 19.8216 8.10138 22.5887C12.8941 25.3558 18.9189 23.8522 21.5668 19.2659Z" fill="#0070C2"/>
</svg>
